verilog/dv/output_test/io_ports.vcd
$date
	Wed Jun  9 16:17:37 2021
$end
$version
	Icarus Verilog
$end
$timescale
	1ps
$end
$scope module io_ports_tb $end
$scope module uut $end
$scope module mprj $end
$scope module mprj $end
$var wire 38 ! io_in [37:0] $end
$var wire 3 " irq [2:0] $end
$var wire 128 # la_data_in [127:0] $end
$var wire 128 $ la_data_out [127:0] $end
$var wire 128 % la_oenb [127:0] $end
$var wire 1 & user_clock2 $end
$var wire 1 ' vccd1 $end
$var wire 1 ' vccd2 $end
$var wire 1 ( vdda1 $end
$var wire 1 ( vdda2 $end
$var wire 1 ) vssa1 $end
$var wire 1 ) vssa2 $end
$var wire 1 ) vssd1 $end
$var wire 1 ) vssd2 $end
$var wire 1 * w_hb_o $end
$var wire 1 + wb_clk_i $end
$var wire 1 , wb_rst_i $end
$var wire 1 - wbs_ack_o $end
$var wire 32 . wbs_adr_i [31:0] $end
$var wire 1 / wbs_cyc_i $end
$var wire 32 0 wbs_dat_i [31:0] $end
$var wire 32 1 wbs_dat_o [31:0] $end
$var wire 4 2 wbs_sel_i [3:0] $end
$var wire 1 3 wbs_stb_i $end
$var wire 1 4 wbs_we_i $end
$var wire 32 5 w_wbs_dat_o [31:0] $end
$var wire 1 6 w_wbs_ack_o $end
$var wire 32 7 w_gpo [31:0] $end
$var wire 32 8 w_gpio_oe [31:0] $end
$var wire 32 9 w_gpi [31:0] $end
$var wire 38 : io_out [37:0] $end
$var wire 38 ; io_oeb [37:0] $end
$scope module peripheral_top $end
$var wire 1 < clock $end
$var wire 32 = gpi [31:0] $end
$var wire 1 * hb_o $end
$var wire 1 > rst $end
$var wire 1 + wb_clk_i $end
$var wire 1 , wb_rst_i $end
$var wire 32 ? wbs_adr_i [31:0] $end
$var wire 1 / wbs_cyc_i $end
$var wire 32 @ wbs_dat_i [31:0] $end
$var wire 4 A wbs_sel_i [3:0] $end
$var wire 1 3 wbs_stb_i $end
$var wire 1 4 wbs_we_i $end
$var wire 32 B wbs_dat_o [31:0] $end
$var wire 1 6 wbs_ack_o $end
$var wire 1 C peripheral_apb_write $end
$var wire 32 D peripheral_apb_wdata [31:0] $end
$var wire 1 E peripheral_apb_sel $end
$var wire 32 F peripheral_apb_rdata [31:0] $end
$var wire 4 G peripheral_apb_pstb [3:0] $end
$var wire 1 H peripheral_apb_ena $end
$var wire 32 I peripheral_apb_addr [31:0] $end
$var wire 32 J gpo [31:0] $end
$var wire 32 K gpio_oe [31:0] $end
$scope module u_gpio_ssp $end
$var wire 1 L apb_rready $end
$var wire 1 < clock $end
$var wire 32 M gpi [31:0] $end
$var wire 32 N gpo [31:0] $end
$var wire 1 > rst $end
$var wire 32 O gpio_oe [31:0] $end
$var wire 1 C apb_write $end
$var wire 32 P apb_wdata [31:0] $end
$var wire 1 E apb_sel $end
$var wire 4 Q apb_pstb [3:0] $end
$var wire 1 H apb_ena $end
$var wire 32 R apb_addr [31:0] $end
$var reg 32 S apb_rdata [31:0] $end
$var reg 32 T gpio_0_s [31:0] $end
$var reg 32 U gpiod [31:0] $end
$upscope $end
$scope module u_wishbone2apb $end
$var wire 32 V s_apb_addr [31:0] $end
$var wire 1 H s_apb_ena $end
$var wire 4 W s_apb_pstb [3:0] $end
$var wire 32 X s_apb_rdata [31:0] $end
$var wire 1 Y s_apb_rready $end
$var wire 1 E s_apb_sel $end
$var wire 32 Z s_apb_wdata [31:0] $end
$var wire 1 C s_apb_write $end
$var wire 1 [ valid $end
$var wire 1 + wb_clk_i $end
$var wire 1 , wb_rst_i $end
$var wire 1 6 wbs_ack_o $end
$var wire 32 \ wbs_adr_i [31:0] $end
$var wire 1 / wbs_cyc_i $end
$var wire 32 ] wbs_dat_i [31:0] $end
$var wire 32 ^ wbs_dat_o [31:0] $end
$var wire 4 _ wbs_sel_i [3:0] $end
$var wire 1 3 wbs_stb_i $end
$var wire 1 4 wbs_we_i $end
$var reg 1 ` penable $end
$upscope $end
$upscope $end
$upscope $end
$upscope $end
$upscope $end
$upscope $end
$enddefinitions $end
#0
$dumpvars
x`
bx _
bx ^
bx ]
bx \
x[
bx Z
1Y
bx X
bx W
bx V
bx U
bx T
bx S
bx R
bx Q
bx P
bx O
bx N
bx M
1L
bx K
bx J
bx I
xH
bx G
bx F
xE
bx D
xC
bx B
bx A
bx @
bx ?
x>
bx =
x<
bzxzzzzxxxxxxxxxxxxxxxxxxxxxxxxxxxxxxxx ;
bz1zzzzxxxxxxxxxxxxxxxxxxxxxxxxxxxxxxxx :
bx 9
bx 8
bx 7
x6
bx 5
x4
x3
bx 2
bx 1
bx 0
x/
bx .
x-
x,
x+
1*
0)
0(
0'
z&
bx %
b0 $
bx #
b0 "
bx !
$end
#212500
bz #
#300000
1(
#400000
0H
0-
06
0`
1>
1,
0E
0[
b0 G
b0 Q
b0 W
b0 2
b0 A
b0 _
b0 I
b0 R
b0 V
b0 .
b0 ?
b0 \
b0 D
b0 P
b0 Z
b0 0
b0 @
b0 ]
b11111111111111111111111111111111111111111111111111111111111111111111111111111111111111111111111111111111111111111111111111111111 %
bx1xxx 9
bx1xxx =
bx1xxx M
0<
0+
0/
03
0C
04
bx1xxx !
1'
#412500
bz0zzzz11110000000000000000000000000000 ;
b11110000000000000000000000000000 8
b11110000000000000000000000000000 K
b11110000000000000000000000000000 O
b11110000000000000000000000000000 U
b0 1
b0 5
b0 B
b0 ^
b0 F
b0 S
b0 X
bz1zzzz00000000000000000000000000000000 :
b0 7
b0 J
b0 N
b0 T
1<
1+
#425000
0<
0+
#437500
1<
1+
#450000
0<
0+
#462500
1<
1+
#475000
0<
0+
#487500
1<
1+
#500000
0<
0+
#512500
1<
1+
#525000
0<
0+
#537500
1<
1+
#550000
0<
0+
#562500
1<
1+
#575000
0<
0+
#587500
1<
1+
#600000
bx1xxx 9
bx1xxx =
bx1xxx M
bx1xxx !
0<
0+
#612500
1<
1+
#625000
0<
0+
#637500
1<
1+
#650000
0<
0+
#662500
1<
1+
#675000
0<
0+
#687500
1<
1+
#700000
0<
0+
#712500
1<
1+
#725000
0<
0+
#737500
1<
1+
#750000
0<
0+
#762500
1<
1+
#775000
0<
0+
#787500
1<
1+
#800000
0<
0+
#812500
1<
1+
#825000
0<
0+
#837500
1<
1+
#850000
0<
0+
#862500
1<
1+
#875000
0<
0+
#887500
1<
1+
#900000
0<
0+
#912500
1<
1+
#925000
0<
0+
#937500
1<
1+
#950000
0<
0+
#962500
1<
1+
#975000
0<
0+
#987500
1<
1+
#1000000
0<
0+
#1012500
1<
1+
#1025000
0<
0+
#1037500
1<
1+
#1050000
0<
0+
#1062500
1<
1+
#1075000
0<
0+
#1087500
1<
1+
#1100000
0<
0+
#1112500
1<
1+
#1125000
0<
0+
#1137500
1<
1+
#1150000
0<
0+
#1162500
1<
1+
#1175000
0<
0+
#1187500
1<
1+
#1200000
0<
0+
#1212500
1<
1+
#1225000
0<
0+
#1237500
1<
1+
#1250000
0<
0+
#1262500
1<
1+
#1275000
0<
0+
#1287500
1<
1+
#1300000
0<
0+
#1312500
1<
1+
#1325000
0<
0+
#1337500
1<
1+
#1350000
0<
0+
#1362500
1<
1+
#1375000
0<
0+
#1387500
1<
1+
#1400000
0<
0+
#1412500
1<
1+
#1425000
0<
0+
#1437500
1<
1+
#1450000
0<
0+
#1462500
1<
1+
#1475000
0<
0+
#1487500
1<
1+
#1500000
0<
0+
#1512500
1<
1+
#1525000
0<
0+
#1537500
1<
1+
#1550000
0<
0+
#1562500
1<
1+
#1575000
0<
0+
#1587500
1<
1+
#1600000
0<
0+
#1612500
1<
1+
#1625000
0<
0+
#1637500
1<
1+
#1650000
0<
0+
#1662500
1<
1+
#1675000
0<
0+
#1687500
1<
1+
#1700000
0<
0+
#1712500
1<
1+
#1725000
0<
0+
#1737500
1<
1+
#1750000
0<
0+
#1762500
1<
1+
#1775000
0<
0+
#1787500
1<
1+
#1800000
0<
0+
#1812500
1<
1+
#1825000
0<
0+
#1837500
1<
1+
#1850000
0<
0+
#1862500
1<
1+
#1875000
0<
0+
#1887500
1<
1+
#1900000
0<
0+
#1912500
1<
1+
#1925000
0<
0+
#1937500
1<
1+
#1950000
0<
0+
#1962500
1<
1+
#1975000
0<
0+
#1987500
1<
1+
#2000000
0<
0+
#2012500
1<
1+
#2025000
0<
0+
#2037500
1<
1+
#2050000
0<
0+
#2062500
0>
0,
1<
1+
#2075000
0<
0+
#2087500
1<
1+
#2100000
0<
0+
#2112500
1<
1+
#2125000
0<
0+
#2137500
bx D
bx P
bx Z
bx 0
bx @
bx ]
b10000000000000000000000000000 I
b10000000000000000000000000000 R
b10000000000000000000000000000 V
b10000000000000000000000000000 .
b10000000000000000000000000000 ?
b10000000000000000000000000000 \
1/
1<
1+
